{
  "/api/*": {
    "target": "http://localhost:5005",
    "secure": false,
    "logLevel": "debug",
    "changeOrigin": true
  },

  "/images/*": {
    "target": "http://localhost:5005",
    "secure": false,
    "logLevel": "debug",
    "changeOrigin": true
  }
}
